<?xml version="1.0" encoding="utf-8"?>
<!-- Generator: Adobe Illustrator 21.1.0, SVG Export Plug-In . SVG Version: 6.00 Build 0)  -->
<svg version="1.1" id="Layer_1" xmlns="http://www.w3.org/2000/svg" xmlns:xlink="http://www.w3.org/1999/xlink" x="0px" y="0px"
	 viewBox="0 0 400 400" style="enable-background:new 0 0 400 400;" xml:space="preserve">
<style type="text/css">
	.st0{fill:#1A1A1A;}
</style>
<g id="Layer_x0020_1">
	<path class="st0" d="M15.7,204.7l16.9-10.4l26.2-9.4l13.7-10.1l6.6-11.6l5.1-16l8.3-14.4l10.6-8.8l1.7,2.9l-8.9,10.3
		c0,0-2.3,13.4-2,14.8s0.9,13.1,0.9,13.1l-2.8,19.3l-9.4,10l-22.3,11.8l-12.8,6l-3.7,2.4l2.1,8.5l7.8,5.4l5.1,1.7l0,0l5.2,1.7
		l31.2-5.6l28.4-6.4l25.3-3.5l20.8,3.4l12.8,5.6c0,0,0,0,0,0l8,3.5l10.9,11.1l2.4,15.6l-3.7,19.5l14.2,1.7l16.2,7.9l17.1,3.8
		l-1.4-9.2l-1-1.5v0l-11.9-18l0,0l-7.1-10.7L200,200l-12.3-35.9l1.1-48.8l8.8-29.3l13.8-13.4l19.1-11l8.2-1.8l5.5-5.9l14.9-5.2
		l29.4-5.9l24-6.9l9.5,3.8l0,0l8.6,3.5l10.2,4.6l3.8,7.6l-2.6,6.8l-3.5-0.7l3.9,2.3l9.4,6.2l11.8,9.9l9.3,11.6l5.5,10.7l-0.7,1.6
		l-7.1-11.4l-4.5-5.3l-2.1,0.2l1.9,4.9l5.6,15.4l-1.6,0.8L365.5,96l-7-12.5l-8.4-9.3l-8.6-5.7l-3.7-1.4l-0.6,6l-5.8,7.2l-14.8,4.6
		l7.2,23.9l-1.6,35.6l-9.4,59.4l-9.6,45.2l-4.1,15.9l7.3,37.1l-5.5,31.3l-15,14.2l-31.6,3.1l-30.4-7.6l-17.9-10.7l-9.9-5.2
		l-12.2,2.6l-40,20.9l-29.3,8.3l-32-6.3l-18.8-16.2l-10.3-26l0.5-19.1L65.6,275l17.7-10.7l-15.9-3l-22.2-4.9L30.1,251l-10.4-13.1
		l-5-14.5L15.7,204.7L15.7,204.7z"/>
</g>
</svg>
