<?xml version="1.0" encoding="utf-8"?>
<!-- Generator: Adobe Illustrator 21.1.0, SVG Export Plug-In . SVG Version: 6.00 Build 0)  -->
<svg version="1.1" id="Layer_1" xmlns="http://www.w3.org/2000/svg" xmlns:xlink="http://www.w3.org/1999/xlink" x="0px" y="0px"
	 viewBox="0 0 400 400" style="enable-background:new 0 0 400 400;" xml:space="preserve">
<style type="text/css">
	.st0{fill:#1A1A1A;}
</style>
<g id="Layer_x0020_1">
	<polygon class="st0" points="369.3,225.9 360.3,207.8 342.2,164.1 334.3,154.1 331.5,130.1 337.4,82.7 336.9,57.6 322,31 317.7,31 
		316.6,34.7 303.3,71.5 306.5,93.3 317.1,131.1 315,137 307,131.3 307,131.3 302.3,127.9 297.4,121.8 297.4,121.8 286.9,108.6 
		286.9,108.6 279.9,99.7 246.9,77.3 220.2,65.6 214.9,62.9 204.8,75.2 212.3,94.4 237.8,112.5 275.6,147.6 278.3,154 274,165.2 
		261.8,180.1 259.2,179.8 259.2,179.8 247.9,178.5 233,178.5 162.2,162.5 113.7,173.2 89.5,181.3 89.5,181.2 61,190.8 36.5,257.3 
		30.7,316.4 54.6,338.8 64.2,344.1 61.6,354.8 83.4,356.9 104.7,360.6 150.5,369.7 163.3,369.7 164.3,364.3 168.6,364.3 
		168.6,353.2 186.7,347.3 204.5,340.6 204.5,340.6 205.3,340.3 205.3,340.3 206.4,339.8 206.9,343.6 227.7,350.5 236.2,358.5 
		259.6,361.7 283.6,366.5 291.2,362.7 291.2,362.7 293.2,361.7 291.6,354.2 290.8,353.2 301.7,353.7 318.2,353.7 318.2,347.3 
		322,344.1 319.3,339.8 302.8,330.8 290,326.8 303.8,310 319.8,286.6 323.5,266.4 331.5,261 332,253.6 352.3,253.6 365.1,240.3 
		365.4,239.3 365.4,239.3 	"/>
</g>
</svg>
