<?xml version="1.0" encoding="utf-8"?>
<!-- Generator: Adobe Illustrator 21.1.0, SVG Export Plug-In . SVG Version: 6.00 Build 0)  -->
<svg version="1.1" id="Layer_1" xmlns="http://www.w3.org/2000/svg" xmlns:xlink="http://www.w3.org/1999/xlink" x="0px" y="0px"
	 viewBox="0 0 400 400" style="enable-background:new 0 0 400 400;" xml:space="preserve">
<style type="text/css">
	.st0{fill:#1A1A1A;}
</style>
<g id="Layer_x0020_1">
	<path class="st0" d="M85.9,63.9l51.9-16.5l16.4,5h0l12.1,3.7h0l9.8,3l29.4,46.9l3.4,27.6l-7.5,31.7l-3.6,4.4l9-1.7l12.3-2.1
		l9.2-9.3c0,0,0,0,0,0l0.4-0.4l19.1-10.3l5.5-15.8l9.7-17h0l0.6-0.9l10.5-6.9l-1.7-4.2l0.5-15l1.9-11.3l7.4-0.5l11.1,10.1l5.7-8.2
		l5.1,0.9l4.7,7.1l-2.3,11.3l-1.1,10.7l26.5,14.9l6.8,14l0,0l7.2,15h0l0.3,0.7l1.4,5.5l0.6,1h0l2.8,5.2l-10.2,19.9h0l0,0.1l-4.2,1.6
		h0l-1.3,0.5l-2.7,5.5l-6.1-0.7l-15.7-0.7l-9.5,8.3l2.7,11l11.6,6.2l14.3-9.6l10.9-13.1l6.1-0.7v3.5l4.1-0.7l4.1,3.4l-2.3,8l0,0
		l-0.5,1.7l-2.7,11l-8.9,3.4l-3.4,4.8l-9.5,12.4l-34.1,18.6l-10.9-0.7l-0.1,1h0l-2.6,34.1l-13.1,21.3l-3.3,9l-7.5,11l7.6-1.3h0
		l4.7-0.8h21.1l8.2,2.1l3.4,12.4l-4.8,2.8l-1.4,4.8h-25.3l-41.6-2.1l-12.8-0.4v0l-13.1-0.4l-2.5-6.8l-5.7,1.9l-26.6,1.4l-15-7.6
		l-0.6-1.8l-2.1,1.5l0,0l-6.1,4.4l-15-1.4l-17.1-28.3l-19.8-51.7l10.2-40l15.7-37.9l-2.7-24.8l-8.9-3.4l-6.8,16.5l-17.8,11l-28-9.6
		l-8.2-51L85.9,63.9L85.9,63.9z"/>
</g>
</svg>
